module gitlab.com/stefarf/kafkaproducer

go 1.19

require (
	github.com/confluentinc/confluent-kafka-go/v2 v2.2.0
	github.com/kr/pretty v0.3.0
)

require (
	github.com/kr/text v0.2.0 // indirect
	github.com/rogpeppe/go-internal v1.9.0 // indirect
)
